…
This dataset contains 1384617 rows and 15 columns. Observations are the
level of items in orders by user. There are user / order variables –
user ID, order ID, order day, and order hour. There are also item
variables – name, aisle, department, and some numeric codes.

How many aisles, and which are most items from?

``` r
instacart %>%
  count(aisle) %>%
  arrange(desc(n))
```

    ## # A tibble: 134 x 2
    ##    aisle                              n
    ##    <chr>                          <int>
    ##  1 fresh vegetables              150609
    ##  2 fresh fruits                  150473
    ##  3 packaged vegetables fruits     78493
    ##  4 yogurt                         55240
    ##  5 packaged cheese                41699
    ##  6 water seltzer sparkling water  36617
    ##  7 milk                           32644
    ##  8 chips pretzels                 31269
    ##  9 soy lactosefree                26240
    ## 10 bread                          23635
    ## # … with 124 more rows
…
Aggregate accross minutes to create a total activity variable for each
day, and create a table showing these totals.

``` r
accel_df %>%
  group_by(week, day) %>% 
  summarize(day_total = sum(count))
```

    ## `summarise()` regrouping output by 'week' (override with `.groups` argument)

    ## # A tibble: 35 x 3
    ## # Groups:   week [5]
    ##     week day       day_total
    ##    <dbl> <fct>         <dbl>
    ##  1     1 Friday      480543.
    ##  2     1 Monday       78828.
    ##  3     1 Saturday    376254 
    ##  4     1 Sunday      631105 
    ##  5     1 Thursday    355924.
    ##  6     1 Tuesday     307094.
    ##  7     1 Wednesday   340115.
    ##  8     2 Friday      568839 
    ##  9     2 Monday      295431 
    ## 10     2 Saturday    607175 
    ## # … with 25 more rows
…
